{
  "images" : [
    {
      "idiom" : "universal",
      "scale" : "1x",
      "filename" : "4ff459989ade98d3769e3efe7034dd8c.jpg"
    },
    {
      "idiom" : "universal",
      "scale" : "2x"
    },
    {
      "idiom" : "universal",
      "scale" : "3x"
    }
  ],
  "info" : {
    "version" : 1,
    "author" : "xcode"
  }
}